{
  "type": "service_account",
  "project_id": "xplor-insights",
  "private_key_id": "411a06a4a8d3d80a81c1852b08f4d31015dc22dd",
  "private_key": "-----BEGIN PRIVATE KEY-----\nMIIEvgIBADANBgkqhkiG9w0BAQEFAASCBKgwggSkAgEAAoIBAQDnXnpX9++/Tx6r\nWlANRA+Bz+U2QygNT/kTY5XwRNIVX5duLJKHupm8E7v2ZH2+Bro9RTDVlwIbBwaT\n77TySkgYGi4qm0jw7jQGKGTwdi7lSl1TGmUQZjKEpjMpqdLy5/FjwF1ojHY9mdr2\n5IBVOVC2lhjrXemnZRoi4JNm+rCH0sMbqjsHttNbIyvBNnwc0t1DtuMIGW57HzWL\nSoKCFv6XoIKFCQTbnEZEVmOPupmxa5mvABrcyPL9/4bOBJkr5tXC4iwwENlRMTYc\nW8GpUlQd3OVK8JuCmNcuKb7In7hyvr+zFj/iOSEENdRVh++0xH1So5wnwY8S7HS5\nSmKZEa7RAgMBAAECggEAS99oKHvmk6qLCK87rDYDDdNSu8onEsKEkC6qp1myOQ8Z\ndihIvxjavFoOXB0VPSEwptIPUyPLrXhO2GmVwZTJcpn3RMKal2PODKzneRGQjGGo\nHA3+UXPqIiTshz+pLT4Ro2AcYaIaTlYrf6ZsTUZX6SBsuJaZ/mqBuSlDPVR9WnSM\nJdRTEVmoy4/zbUpN+/GSR1K0XDgZuu4m64hXcFWfHcrrQotFj4NwnXvzIkmb/oYJ\neIp+hIiKQAbwfeG+knykO+iT6m1coMaShmqHHf9tmO/4pcPzAdNae5U+GMOSBfi7\nuAX0+kNGiOoyjpwof/UYY+wW9ELg7RMenmlPjqrinwKBgQD1SejWVbPT94c0ZLPB\n0L0Lu01NF7eLsoAmYJUsVVM3+6J+sYjXK6Yf1pDO/OghniQQcQ/6waGUKCqktEpr\nmHpmrzGf0ZraQDIsAXkaCc20TOAVaZl/uYtO38YTcS3lQY5l0M5haMrSYuJ1E97Z\nVuq1PckuZEQAk/J03gVH7fp3twKBgQDxePXJwgrJP3LJpbwoGiUTIDWPKYLjRxPC\ng09wPdJSEQGbDrCCRli3wJTAwdEaD4z7Nkd5HaYKud9iFO+aPMsU3n6KCMPTn3Ia\nT54meGlVXrM29IdiI3JEEiSvIqfvs8eS2r0Rb5U2j3MNMv0a6l2jyU25M74CLs90\nXUZhDHy9twKBgGuZsX8cd1dbtT7hkg1KkTNtRbq01bp9YkPziFy7TVc4lo63OI0T\nQ7uht0JlpTriEXX48waQHF5OxG4d/Kt4ZvFWlxFBtIlbMecl+kbW2BrowkACY+io\nrxi5hz2OH5D7EglN8MrAWoCyCh9LyS1UOH+rC+7C4yXRwMFNh8mG9qG/AoGBAI1J\nYzb77Ge4Uieea6tjMNIyBGSRu13UVsF3J2HbKlaOUMwzGh//nSVW7zKhtQF0m97Y\n8ZTyPhcEjqnK6i7q50B8trl5S2tlXdP7RePojGlBEcdT6GsJpnAh1YkL1Asyu9E3\nX2z2Ru43nO/aJ7I58zREMs/scH7CeOvzL5zVO5+dAoGBAInXMtpbGAE5PbUbtYdR\nhRvoVmL547o3J1fdhodj9lHlrRWNiYhAGGRvgDeJEoqUJvICmn+0MShGHIO2jUQM\n8ymhRvJK+bc2Z2IkPtuw8HUqS50hC1CYiLFc/lbG1xyfgTSgH59+1/Y8/MO5TbFR\nJhvZuP/3SmXhfaKSDM7jfUb0\n-----END PRIVATE KEY-----\n",
  "client_email": "firebase-adminsdk-lmlr4@xplor-insights.iam.gserviceaccount.com",
  "client_id": "105367852190348261215",
  "auth_uri": "https://accounts.google.com/o/oauth2/auth",
  "token_uri": "https://oauth2.googleapis.com/token",
  "auth_provider_x509_cert_url": "https://www.googleapis.com/oauth2/v1/certs",
  "client_x509_cert_url": "https://www.googleapis.com/robot/v1/metadata/x509/firebase-adminsdk-lmlr4%40xplor-insights.iam.gserviceaccount.com"
}
